<?xml version="1.0" encoding="UTF-8" standalone="no"?>
<!DOCTYPE svg PUBLIC "-//W3C//DTD SVG 1.1//EN"
 "http://www.w3.org/Graphics/SVG/1.1/DTD/svg11.dtd">
<!-- Generated by graphviz version 7.1.0 (0)
 -->
<!-- Pages: 1 -->
<svg width="7751pt" height="678pt"
 viewBox="0.00 0.00 7751.00 678.00" xmlns="http://www.w3.org/2000/svg" xmlns:xlink="http://www.w3.org/1999/xlink">
<g id="graph0" class="graph" transform="scale(1 1) rotate(0) translate(4 674)">
<polygon fill="white" stroke="none" points="-4,4 -4,-674 7747,-674 7747,4 -4,4"/>
<g id="clust1" class="cluster">
<title>cluster_0</title>
<polygon fill="none" stroke="black" points="8,-8 8,-662 7600,-662 7600,-8 8,-8"/>
</g>
<g id="clust2" class="cluster">
<title>cluster_1</title>
<polygon fill="none" stroke="grey" points="4222,-329 4222,-471 4636,-471 4636,-329 4222,-329"/>
</g>
<g id="clust3" class="cluster">
<title>cluster_2</title>
<polygon fill="none" stroke="grey" points="6552,-506 6552,-631 6962,-631 6962,-506 6552,-506"/>
</g>
<g id="clust4" class="cluster">
<title>cluster_3</title>
<polygon fill="none" stroke="grey" points="4644,-165 4644,-471 5058,-471 5058,-165 4644,-165"/>
</g>
<g id="clust5" class="cluster">
<title>cluster_4</title>
<polygon fill="none" stroke="grey" points="5066,-165 5066,-471 5476,-471 5476,-165 5066,-165"/>
</g>
<g id="clust6" class="cluster">
<title>cluster_5</title>
<polygon fill="none" stroke="grey" points="250,-240 250,-382 682,-382 682,-240 250,-240"/>
</g>
<g id="clust7" class="cluster">
<title>cluster_6</title>
<polygon fill="none" stroke="grey" points="2607,-418 2607,-631 3025,-631 3025,-418 2607,-418"/>
</g>
<g id="clust8" class="cluster">
<title>cluster_7</title>
<polygon fill="none" stroke="grey" points="5677,-329 5677,-471 6091,-471 6091,-329 5677,-329"/>
</g>
<g id="clust9" class="cluster">
<title>cluster_8</title>
<polygon fill="none" stroke="grey" points="690,-165 690,-382 1098,-382 1098,-165 690,-165"/>
</g>
<g id="clust10" class="cluster">
<title>cluster_9</title>
<polygon fill="none" stroke="grey" points="6099,-240 6099,-471 6511,-471 6511,-240 6099,-240"/>
</g>
<g id="clust11" class="cluster">
<title>cluster_10</title>
<polygon fill="none" stroke="grey" points="1106,-240 1106,-382 1512,-382 1512,-240 1106,-240"/>
</g>
<g id="clust12" class="cluster">
<title>cluster_11</title>
<polygon fill="none" stroke="grey" points="1520,-240 1520,-382 1938,-382 1938,-240 1520,-240"/>
</g>
<g id="clust13" class="cluster">
<title>cluster_12</title>
<polygon fill="none" stroke="grey" points="1220,-506 1220,-631 1630,-631 1630,-506 1220,-506"/>
</g>
<g id="clust14" class="cluster">
<title>cluster_13</title>
<polygon fill="none" stroke="grey" points="1946,-165 1946,-382 2362,-382 2362,-165 1946,-165"/>
</g>
<g id="clust15" class="cluster">
<title>cluster_14</title>
<polygon fill="none" stroke="grey" points="2370,-165 2370,-382 2790,-382 2790,-165 2370,-165"/>
</g>
<g id="clust16" class="cluster">
<title>cluster_15</title>
<polygon fill="none" stroke="grey" points="3196,-16 3196,-382 3774,-382 3774,-16 3196,-16"/>
</g>
<g id="clust17" class="cluster">
<title>cluster_16</title>
<polygon fill="none" stroke="grey" points="6519,-165 6519,-471 6933,-471 6933,-165 6519,-165"/>
</g>
<g id="clust18" class="cluster">
<title>cluster_17</title>
<polygon fill="none" stroke="black" points="16,-240 16,-654 242,-654 242,-240 16,-240"/>
<text text-anchor="middle" x="129" y="-638.8" font-family="Times,serif" font-size="14.00">Graph legend</text>
</g>
<!-- 2079C80A45FEBD9BA0951AF2CB2312E1ECF73F57_Moritz Fischer &lt;mdf@kernel.org&gt; -->
<g id="node1" class="node">
<title>2079C80A45FEBD9BA0951AF2CB2312E1ECF73F57_Moritz Fischer &lt;mdf@kernel.org&gt;</title>
<polygon fill="lightgreen" stroke="black" points="4595,-463 4329,-463 4329,-425 4595,-425 4595,-463"/>
<text text-anchor="middle" x="4462" y="-447.8" font-family="Times,serif" font-size="14.00">Moritz Fischer &lt;mdf@kernel.org&gt;</text>
<text text-anchor="middle" x="4462" y="-432.8" font-family="Times,serif" font-size="14.00">(100%)</text>
</g>
<!-- 2079C80A45FEBD9BA0951AF2CB2312E1ECF73F57 -->
<g id="node2" class="node">
<title>2079C80A45FEBD9BA0951AF2CB2312E1ECF73F57</title>
<polygon fill="lightgrey" stroke="black" points="4628,-373 4230,-373 4230,-337 4628,-337 4628,-373"/>
<text text-anchor="middle" x="4429" y="-351.3" font-family="Times,serif" font-size="14.00">2079C80A45FEBD9BA0951AF2CB2312E1ECF73F57</text>
</g>
<!-- 2079C80A45FEBD9BA0951AF2CB2312E1ECF73F57_Moritz Fischer &lt;mdf@kernel.org&gt;&#45;&gt;2079C80A45FEBD9BA0951AF2CB2312E1ECF73F57 -->
<!-- CA30110FD5285DE49BB238CD17212997986C5765_Benson Leung (kernel.org) &lt;bleung@kernel.org&gt; -->
<g id="node3" class="node">
<title>CA30110FD5285DE49BB238CD17212997986C5765_Benson Leung (kernel.org) &lt;bleung@kernel.org&gt;</title>
<polygon fill="lightgreen" stroke="black" points="6942.5,-623 6571.5,-623 6571.5,-587 6942.5,-587 6942.5,-623"/>
<text text-anchor="middle" x="6757" y="-601.3" font-family="Times,serif" font-size="14.00">Benson Leung (kernel.org) &lt;bleung@kernel.org&gt;</text>
</g>
<!-- CA30110FD5285DE49BB238CD17212997986C5765 -->
<g id="node4" class="node">
<title>CA30110FD5285DE49BB238CD17212997986C5765</title>
<polygon fill="#9f79ee" stroke="black" points="6954,-550 6560,-550 6560,-514 6954,-514 6954,-550"/>
<text text-anchor="middle" x="6757" y="-528.3" font-family="Times,serif" font-size="14.00">CA30110FD5285DE49BB238CD17212997986C5765</text>
</g>
<!-- CA30110FD5285DE49BB238CD17212997986C5765_Benson Leung (kernel.org) &lt;bleung@kernel.org&gt;&#45;&gt;CA30110FD5285DE49BB238CD17212997986C5765 -->
<!-- CA30110FD5285DE49BB238CD17212997986C5765&#45;&gt;2079C80A45FEBD9BA0951AF2CB2312E1ECF73F57_Moritz Fischer &lt;mdf@kernel.org&gt; -->
<g id="edge38" class="edge">
<title>CA30110FD5285DE49BB238CD17212997986C5765&#45;&gt;2079C80A45FEBD9BA0951AF2CB2312E1ECF73F57_Moritz Fischer &lt;mdf@kernel.org&gt;</title>
<path fill="none" stroke="black" d="M6559.77,-529.59C6144.9,-526.24 5193.63,-516.55 4870,-496 4775.93,-490.03 4670.36,-476.65 4590.18,-465.09"/>
<polygon fill="black" stroke="black" points="4590.93,-461.67 4580.53,-463.69 4589.93,-468.59 4590.93,-461.67"/>
<text text-anchor="middle" x="4953.5" y="-484.8" font-family="Times,serif" font-size="14.00">certified on 2019&#45;06&#45;26</text>
<polyline fill="none" stroke="black" points="5037,-481 4870,-481 4870,-496"/>
</g>
<!-- 36C6A1367D6F2126534162C682704BBB30DDCBC6_Tzung&#45;Bi Shih (Google work) &lt;tzungbi@google.com&gt; -->
<g id="node5" class="node">
<title>36C6A1367D6F2126534162C682704BBB30DDCBC6_Tzung&#45;Bi Shih (Google work) &lt;tzungbi@google.com&gt;</title>
<polygon fill="lightgreen" stroke="black" points="5050,-463 4652,-463 4652,-425 5050,-425 5050,-463"/>
<text text-anchor="middle" x="4851" y="-447.8" font-family="Times,serif" font-size="14.00">Tzung&#45;Bi Shih (Google work) &lt;tzungbi@google.com&gt;</text>
<text text-anchor="middle" x="4851" y="-432.8" font-family="Times,serif" font-size="14.00">(100%)</text>
</g>
<!-- CA30110FD5285DE49BB238CD17212997986C5765&#45;&gt;36C6A1367D6F2126534162C682704BBB30DDCBC6_Tzung&#45;Bi Shih (Google work) &lt;tzungbi@google.com&gt; -->
<g id="edge49" class="edge">
<title>CA30110FD5285DE49BB238CD17212997986C5765&#45;&gt;36C6A1367D6F2126534162C682704BBB30DDCBC6_Tzung&#45;Bi Shih (Google work) &lt;tzungbi@google.com&gt;</title>
<path fill="none" stroke="black" d="M6559.73,-530.35C6192.45,-528.53 5416.79,-521.69 5149,-496 5082,-489.57 5007.35,-476.79 4949.52,-465.63"/>
<polygon fill="black" stroke="black" points="4950.53,-462.26 4940.04,-463.78 4949.19,-469.13 4950.53,-462.26"/>
<text text-anchor="middle" x="5232.5" y="-484.8" font-family="Times,serif" font-size="14.00">certified on 2022&#45;02&#45;14</text>
<polyline fill="none" stroke="black" points="5316,-481 5149,-481 5149,-496"/>
</g>
<!-- 36C6A1367D6F2126534162C682704BBB30DDCBC6_Tzung&#45;Bi Shih (Personal 2) &lt;tzungbi@gmail.com&gt; -->
<g id="node6" class="node">
<title>36C6A1367D6F2126534162C682704BBB30DDCBC6_Tzung&#45;Bi Shih (Personal 2) &lt;tzungbi@gmail.com&gt;</title>
<polygon fill="lightgreen" stroke="black" points="5046.5,-374 4669.5,-374 4669.5,-336 5046.5,-336 5046.5,-374"/>
<text text-anchor="middle" x="4858" y="-358.8" font-family="Times,serif" font-size="14.00">Tzung&#45;Bi Shih (Personal 2) &lt;tzungbi@gmail.com&gt;</text>
<text text-anchor="middle" x="4858" y="-343.8" font-family="Times,serif" font-size="14.00">(100%)</text>
</g>
<!-- CA30110FD5285DE49BB238CD17212997986C5765&#45;&gt;36C6A1367D6F2126534162C682704BBB30DDCBC6_Tzung&#45;Bi Shih (Personal 2) &lt;tzungbi@gmail.com&gt; -->
<g id="edge50" class="edge">
<title>CA30110FD5285DE49BB238CD17212997986C5765&#45;&gt;36C6A1367D6F2126534162C682704BBB30DDCBC6_Tzung&#45;Bi Shih (Personal 2) &lt;tzungbi@gmail.com&gt;</title>
<path fill="none" stroke="black" d="M6559.7,-526.76C6218.24,-518.7 5549.19,-499.38 5506,-471 5484.07,-456.59 5501.65,-432.82 5480,-418 5403.07,-365.33 5154.71,-391.9 5062,-382 5044.58,-380.14 5026.34,-378.04 5008.24,-375.86"/>
<polygon fill="black" stroke="black" points="5008.85,-372.4 4998.5,-374.67 5008.01,-379.35 5008.85,-372.4"/>
<text text-anchor="middle" x="5589.5" y="-440.3" font-family="Times,serif" font-size="14.00">certified on 2022&#45;02&#45;14</text>
<polyline fill="none" stroke="black" points="5673,-436.5 5506,-436.5 5585.07,-485.48"/>
</g>
<!-- 36C6A1367D6F2126534162C682704BBB30DDCBC6_Tzung&#45;Bi Shih (Personal) &lt;penvirus@gmail.com&gt; -->
<g id="node7" class="node">
<title>36C6A1367D6F2126534162C682704BBB30DDCBC6_Tzung&#45;Bi Shih (Personal) &lt;penvirus@gmail.com&gt;</title>
<polygon fill="lightgreen" stroke="black" points="5043.5,-285 4672.5,-285 4672.5,-247 5043.5,-247 5043.5,-285"/>
<text text-anchor="middle" x="4858" y="-269.8" font-family="Times,serif" font-size="14.00">Tzung&#45;Bi Shih (Personal) &lt;penvirus@gmail.com&gt;</text>
<text text-anchor="middle" x="4858" y="-254.8" font-family="Times,serif" font-size="14.00">(100%)</text>
</g>
<!-- CA30110FD5285DE49BB238CD17212997986C5765&#45;&gt;36C6A1367D6F2126534162C682704BBB30DDCBC6_Tzung&#45;Bi Shih (Personal) &lt;penvirus@gmail.com&gt; -->
<g id="edge51" class="edge">
<title>CA30110FD5285DE49BB238CD17212997986C5765&#45;&gt;36C6A1367D6F2126534162C682704BBB30DDCBC6_Tzung&#45;Bi Shih (Personal) &lt;penvirus@gmail.com&gt;</title>
<path fill="none" stroke="black" d="M6954.28,-520.17C7054.85,-514.11 7179.04,-505.8 7290,-496 7390.23,-487.15 7447.9,-545.97 7515,-471 7530.71,-453.45 7531.4,-434.91 7515,-418 7500.91,-403.48 7170.87,-410.82 7151,-407 7051.59,-387.89 7036.48,-347.77 6937,-329 6527.45,-251.72 5478.13,-308.22 5062,-285 5059.77,-284.88 5057.53,-284.75 5055.27,-284.61"/>
<polygon fill="black" stroke="black" points="5055.62,-281.13 5045.42,-284 5055.19,-288.11 5055.62,-281.13"/>
<text text-anchor="middle" x="7234.5" y="-395.8" font-family="Times,serif" font-size="14.00">certified on 2022&#45;02&#45;14</text>
<polyline fill="none" stroke="black" points="7318,-392 7151,-392 7214.27,-408.29"/>
</g>
<!-- 3E46049A87496A351921CAEDD89D81132578E73D_Stephen Boyd &lt;bebarino@gmail.com&gt; -->
<g id="node9" class="node">
<title>3E46049A87496A351921CAEDD89D81132578E73D_Stephen Boyd &lt;bebarino@gmail.com&gt;</title>
<polygon fill="lightgreen" stroke="black" points="5466,-463 5170,-463 5170,-425 5466,-425 5466,-463"/>
<text text-anchor="middle" x="5318" y="-447.8" font-family="Times,serif" font-size="14.00">Stephen Boyd &lt;bebarino@gmail.com&gt;</text>
<text text-anchor="middle" x="5318" y="-432.8" font-family="Times,serif" font-size="14.00">(100%)</text>
</g>
<!-- CA30110FD5285DE49BB238CD17212997986C5765&#45;&gt;3E46049A87496A351921CAEDD89D81132578E73D_Stephen Boyd &lt;bebarino@gmail.com&gt; -->
<g id="edge39" class="edge">
<title>CA30110FD5285DE49BB238CD17212997986C5765&#45;&gt;3E46049A87496A351921CAEDD89D81132578E73D_Stephen Boyd &lt;bebarino@gmail.com&gt;</title>
<path fill="none" stroke="black" d="M6559.51,-529.26C6173.33,-525.43 5353.5,-515.09 5330,-496 5323.57,-490.78 5320.2,-482.82 5318.52,-474.72"/>
<polygon fill="black" stroke="black" points="5322.01,-474.47 5317.32,-464.98 5315.07,-475.33 5322.01,-474.47"/>
<text text-anchor="middle" x="5413.5" y="-484.8" font-family="Times,serif" font-size="14.00">certified on 2019&#45;05&#45;17</text>
<polyline fill="none" stroke="black" points="5497,-481 5330,-481 5412.27,-505.43"/>
</g>
<!-- 3E46049A87496A351921CAEDD89D81132578E73D_Stephen Boyd &lt;sboyd@kernel.org&gt; -->
<g id="node10" class="node">
<title>3E46049A87496A351921CAEDD89D81132578E73D_Stephen Boyd &lt;sboyd@kernel.org&gt;</title>
<polygon fill="lightgreen" stroke="black" points="5455.5,-374 5180.5,-374 5180.5,-336 5455.5,-336 5455.5,-374"/>
<text text-anchor="middle" x="5318" y="-358.8" font-family="Times,serif" font-size="14.00">Stephen Boyd &lt;sboyd@kernel.org&gt;</text>
<text text-anchor="middle" x="5318" y="-343.8" font-family="Times,serif" font-size="14.00">(100%)</text>
</g>
<!-- CA30110FD5285DE49BB238CD17212997986C5765&#45;&gt;3E46049A87496A351921CAEDD89D81132578E73D_Stephen Boyd &lt;sboyd@kernel.org&gt; -->
<g id="edge40" class="edge">
<title>CA30110FD5285DE49BB238CD17212997986C5765&#45;&gt;3E46049A87496A351921CAEDD89D81132578E73D_Stephen Boyd &lt;sboyd@kernel.org&gt;</title>
<path fill="none" stroke="black" d="M6883.52,-513.51C6903.33,-508.79 6919.92,-502.99 6928,-496 6954.38,-473.16 6961.32,-443.02 6937,-418 6912.52,-392.81 5708.08,-383.78 5673,-382 5605.32,-378.56 5530.48,-373.3 5467.03,-368.4"/>
<polygon fill="black" stroke="black" points="5467.48,-364.93 5457.24,-367.64 5466.94,-371.9 5467.48,-364.93"/>
<text text-anchor="middle" x="7034.5" y="-440.3" font-family="Times,serif" font-size="14.00">certified on 2019&#45;05&#45;17</text>
<polyline fill="none" stroke="black" points="7118,-436.5 6951,-436.5 6951.92,-449.24"/>
</g>
<!-- 3E46049A87496A351921CAEDD89D81132578E73D_Stephen Boyd &lt;swboyd@chromium.org&gt; -->
<g id="node11" class="node">
<title>3E46049A87496A351921CAEDD89D81132578E73D_Stephen Boyd &lt;swboyd@chromium.org&gt;</title>
<polygon fill="lightgreen" stroke="black" points="5468,-285 5154,-285 5154,-247 5468,-247 5468,-285"/>
<text text-anchor="middle" x="5311" y="-269.8" font-family="Times,serif" font-size="14.00">Stephen Boyd &lt;swboyd@chromium.org&gt;</text>
<text text-anchor="middle" x="5311" y="-254.8" font-family="Times,serif" font-size="14.00">(100%)</text>
</g>
<!-- CA30110FD5285DE49BB238CD17212997986C5765&#45;&gt;3E46049A87496A351921CAEDD89D81132578E73D_Stephen Boyd &lt;swboyd@chromium.org&gt; -->
<g id="edge41" class="edge">
<title>CA30110FD5285DE49BB238CD17212997986C5765&#45;&gt;3E46049A87496A351921CAEDD89D81132578E73D_Stephen Boyd &lt;swboyd@chromium.org&gt;</title>
<path fill="none" stroke="black" d="M6954.46,-529.1C7184.34,-525.89 7535.43,-517.49 7556,-496 7579.97,-470.96 7579.71,-443.29 7556,-418 7542.98,-404.11 7403.72,-410.46 7385,-407 7231.69,-378.69 7203.91,-327.83 7050,-303 6945.22,-286.1 6201.11,-287.22 6095,-285 5882.82,-280.56 5638.34,-274.86 5479.58,-271.07"/>
<polygon fill="black" stroke="black" points="5479.89,-267.58 5469.81,-270.84 5479.72,-274.58 5479.89,-267.58"/>
<text text-anchor="middle" x="7468.5" y="-395.8" font-family="Times,serif" font-size="14.00">certified on 2019&#45;05&#45;17</text>
<polyline fill="none" stroke="black" points="7552,-392 7385,-392 7468.55,-408.53"/>
</g>
<!-- 7DB9B58F4A107ACC525AC3B57EF4F96F2BE9962A_Dmitry Torokhov &lt;dtor@kernel.org&gt; -->
<g id="node18" class="node">
<title>7DB9B58F4A107ACC525AC3B57EF4F96F2BE9962A_Dmitry Torokhov &lt;dtor@kernel.org&gt;</title>
<polygon fill="lightgreen" stroke="black" points="6054.5,-463 5771.5,-463 5771.5,-425 6054.5,-425 6054.5,-463"/>
<text text-anchor="middle" x="5913" y="-447.8" font-family="Times,serif" font-size="14.00">Dmitry Torokhov &lt;dtor@kernel.org&gt;</text>
<text text-anchor="middle" x="5913" y="-432.8" font-family="Times,serif" font-size="14.00">(100%)</text>
</g>
<!-- CA30110FD5285DE49BB238CD17212997986C5765&#45;&gt;7DB9B58F4A107ACC525AC3B57EF4F96F2BE9962A_Dmitry Torokhov &lt;dtor@kernel.org&gt; -->
<g id="edge52" class="edge">
<title>CA30110FD5285DE49BB238CD17212997986C5765&#45;&gt;7DB9B58F4A107ACC525AC3B57EF4F96F2BE9962A_Dmitry Torokhov &lt;dtor@kernel.org&gt;</title>
<path fill="none" stroke="black" d="M6559.7,-516.23C6427.91,-505.6 6250.81,-489.85 6095,-471 6079.96,-469.18 6064.23,-467.14 6048.6,-465.03"/>
<polygon fill="black" stroke="black" points="6049.12,-461.57 6038.74,-463.68 6048.18,-468.5 6049.12,-461.57"/>
<text text-anchor="middle" x="6396.5" y="-484.8" font-family="Times,serif" font-size="14.00">certified on 2019&#45;05&#45;17</text>
<polyline fill="none" stroke="black" points="6480,-481 6313,-481 6396.06,-502.24"/>
</g>
<!-- 82F5AC96733EA94CBEB20560E67D96630E933C10_Micah Morton &lt;mortonm@chromium.org&gt; -->
<g id="node23" class="node">
<title>82F5AC96733EA94CBEB20560E67D96630E933C10_Micah Morton &lt;mortonm@chromium.org&gt;</title>
<polygon fill="lightgreen" stroke="black" points="6503,-463 6177,-463 6177,-425 6503,-425 6503,-463"/>
<text text-anchor="middle" x="6340" y="-447.8" font-family="Times,serif" font-size="14.00">Micah Morton &lt;mortonm@chromium.org&gt;</text>
<text text-anchor="middle" x="6340" y="-432.8" font-family="Times,serif" font-size="14.00">(100%)</text>
</g>
<!-- CA30110FD5285DE49BB238CD17212997986C5765&#45;&gt;82F5AC96733EA94CBEB20560E67D96630E933C10_Micah Morton &lt;mortonm@chromium.org&gt; -->
<g id="edge55" class="edge">
<title>CA30110FD5285DE49BB238CD17212997986C5765&#45;&gt;82F5AC96733EA94CBEB20560E67D96630E933C10_Micah Morton &lt;mortonm@chromium.org&gt;</title>
<path fill="none" stroke="black" d="M6671.31,-513.51C6644.04,-507.93 6613.75,-501.72 6586,-496 6537.95,-486.1 6484.64,-475.06 6439.97,-465.78"/>
<polygon fill="black" stroke="black" points="6440.79,-462.38 6430.29,-463.77 6439.37,-469.23 6440.79,-462.38"/>
<text text-anchor="middle" x="6669.5" y="-484.8" font-family="Times,serif" font-size="14.00">certified on 2019&#45;05&#45;16</text>
<polyline fill="none" stroke="black" points="6753,-481 6586,-481 6664.54,-512.12"/>
</g>
<!-- 82F5AC96733EA94CBEB20560E67D96630E933C10_Micah Morton &lt;mortonm@google.com&gt; -->
<g id="node24" class="node">
<title>82F5AC96733EA94CBEB20560E67D96630E933C10_Micah Morton &lt;mortonm@google.com&gt;</title>
<polygon fill="lightgreen" stroke="black" points="6493,-374 6187,-374 6187,-336 6493,-336 6493,-374"/>
<text text-anchor="middle" x="6340" y="-358.8" font-family="Times,serif" font-size="14.00">Micah Morton &lt;mortonm@google.com&gt;</text>
<text text-anchor="middle" x="6340" y="-343.8" font-family="Times,serif" font-size="14.00">(100%)</text>
</g>
<!-- CA30110FD5285DE49BB238CD17212997986C5765&#45;&gt;82F5AC96733EA94CBEB20560E67D96630E933C10_Micah Morton &lt;mortonm@google.com&gt; -->
<g id="edge56" class="edge">
<title>CA30110FD5285DE49BB238CD17212997986C5765&#45;&gt;82F5AC96733EA94CBEB20560E67D96630E933C10_Micah Morton &lt;mortonm@google.com&gt;</title>
<path fill="none" stroke="black" d="M6954.28,-525.86C7074.6,-515.76 7193.99,-488.65 7130,-418 7113.36,-399.63 7043.38,-411.5 7019,-407 6994.08,-402.4 6989.07,-395.64 6964,-392 6865.23,-377.65 6614.44,-390.46 6515,-382 6497.51,-380.51 6479.11,-378.39 6461.08,-376"/>
<polygon fill="black" stroke="black" points="6461.79,-372.56 6451.41,-374.68 6460.84,-379.5 6461.79,-372.56"/>
<text text-anchor="middle" x="7230.5" y="-440.3" font-family="Times,serif" font-size="14.00">certified on 2019&#45;05&#45;16</text>
<polyline fill="none" stroke="black" points="7314,-436.5 7147,-436.5 7147.74,-451.36"/>
</g>
<!-- F51DFD864C136816E7B57F0E858D892E300DB03F_Prashant Malani &lt;p.malani@gmail.com&gt; -->
<g id="node43" class="node">
<title>F51DFD864C136816E7B57F0E858D892E300DB03F_Prashant Malani &lt;p.malani@gmail.com&gt;</title>
<polygon fill="lightgreen" stroke="black" points="6913,-463 6601,-463 6601,-425 6913,-425 6913,-463"/>
<text text-anchor="middle" x="6757" y="-447.8" font-family="Times,serif" font-size="14.00">Prashant Malani &lt;p.malani@gmail.com&gt;</text>
<text text-anchor="middle" x="6757" y="-432.8" font-family="Times,serif" font-size="14.00">(100%)</text>
</g>
<!-- CA30110FD5285DE49BB238CD17212997986C5765&#45;&gt;F51DFD864C136816E7B57F0E858D892E300DB03F_Prashant Malani &lt;p.malani@gmail.com&gt; -->
<g id="edge35" class="edge">
<title>CA30110FD5285DE49BB238CD17212997986C5765&#45;&gt;F51DFD864C136816E7B57F0E858D892E300DB03F_Prashant Malani &lt;p.malani@gmail.com&gt;</title>
<path fill="none" stroke="black" d="M6757,-513.6C6757,-502.4 6757,-487.56 6757,-474.55"/>
<polygon fill="black" stroke="black" points="6760.5,-474.78 6757,-464.78 6753.5,-474.78 6760.5,-474.78"/>
<text text-anchor="middle" x="6840.5" y="-484.8" font-family="Times,serif" font-size="14.00">certified on 2021&#45;09&#45;09</text>
<polyline fill="none" stroke="black" points="6924,-481 6757,-481 6757,-488.39"/>
</g>
<!-- F51DFD864C136816E7B57F0E858D892E300DB03F_Prashant Malani &lt;pmalani@chromium.org&gt; -->
<g id="node44" class="node">
<title>F51DFD864C136816E7B57F0E858D892E300DB03F_Prashant Malani &lt;pmalani@chromium.org&gt;</title>
<polygon fill="lightgreen" stroke="black" points="6924.5,-374 6589.5,-374 6589.5,-336 6924.5,-336 6924.5,-374"/>
<text text-anchor="middle" x="6757" y="-358.8" font-family="Times,serif" font-size="14.00">Prashant Malani &lt;pmalani@chromium.org&gt;</text>
<text text-anchor="middle" x="6757" y="-343.8" font-family="Times,serif" font-size="14.00">(100%)</text>
</g>
<!-- CA30110FD5285DE49BB238CD17212997986C5765&#45;&gt;F51DFD864C136816E7B57F0E858D892E300DB03F_Prashant Malani &lt;pmalani@chromium.org&gt; -->
<g id="edge36" class="edge">
<title>CA30110FD5285DE49BB238CD17212997986C5765&#45;&gt;F51DFD864C136816E7B57F0E858D892E300DB03F_Prashant Malani &lt;pmalani@chromium.org&gt;</title>
<path fill="none" stroke="black" d="M6954.16,-523.6C7110.99,-515.58 7308.16,-499.86 7333,-471 7348.37,-453.15 7349.36,-434.95 7333,-418 7309.3,-393.44 7055.8,-423.64 7026,-407 7019,-403.09 7022.79,-396.26 7016,-392 7000.91,-382.53 6970.71,-375.48 6936.1,-370.26"/>
<polygon fill="black" stroke="black" points="6936.62,-366.8 6926.22,-368.84 6935.62,-373.73 6936.62,-366.8"/>
<text text-anchor="middle" x="7427.5" y="-440.3" font-family="Times,serif" font-size="14.00">certified on 2021&#45;09&#45;09</text>
<polyline fill="none" stroke="black" points="7511,-436.5 7344,-436.5 7344.9,-443.74"/>
</g>
<!-- F51DFD864C136816E7B57F0E858D892E300DB03F_Prashant Malani &lt;pmalani@google.com&gt; -->
<g id="node45" class="node">
<title>F51DFD864C136816E7B57F0E858D892E300DB03F_Prashant Malani &lt;pmalani@google.com&gt;</title>
<polygon fill="lightgreen" stroke="black" points="6914.5,-285 6599.5,-285 6599.5,-247 6914.5,-247 6914.5,-285"/>
<text text-anchor="middle" x="6757" y="-269.8" font-family="Times,serif" font-size="14.00">Prashant Malani &lt;pmalani@google.com&gt;</text>
<text text-anchor="middle" x="6757" y="-254.8" font-family="Times,serif" font-size="14.00">(100%)</text>
</g>
<!-- CA30110FD5285DE49BB238CD17212997986C5765&#45;&gt;F51DFD864C136816E7B57F0E858D892E300DB03F_Prashant Malani &lt;pmalani@google.com&gt; -->
<g id="edge37" class="edge">
<title>CA30110FD5285DE49BB238CD17212997986C5765&#45;&gt;F51DFD864C136816E7B57F0E858D892E300DB03F_Prashant Malani &lt;pmalani@google.com&gt;</title>
<path fill="none" stroke="black" d="M6954.27,-529.34C7189.76,-526.36 7554.75,-518.17 7576,-496 7675.05,-392.63 7450.57,-346.14 7240,-303 7137,-281.9 7019.38,-272.82 6926,-269.06"/>
<polygon fill="black" stroke="black" points="6926.38,-265.57 6916.25,-268.68 6926.11,-272.56 6926.38,-265.57"/>
<text text-anchor="middle" x="7659.5" y="-395.8" font-family="Times,serif" font-size="14.00">certified on 2021&#45;09&#45;09</text>
<polyline fill="none" stroke="black" points="7743,-392 7576,-392 7595.83,-430.14"/>
</g>
<!-- 36C6A1367D6F2126534162C682704BBB30DDCBC6_Tzung&#45;Bi Shih (Google work) &lt;tzungbi@google.com&gt;&#45;&gt;36C6A1367D6F2126534162C682704BBB30DDCBC6_Tzung&#45;Bi Shih (Personal 2) &lt;tzungbi@gmail.com&gt; -->
<!-- 36C6A1367D6F2126534162C682704BBB30DDCBC6_Tzung&#45;Bi Shih (Personal 2) &lt;tzungbi@gmail.com&gt;&#45;&gt;36C6A1367D6F2126534162C682704BBB30DDCBC6_Tzung&#45;Bi Shih (Personal) &lt;penvirus@gmail.com&gt; -->
<!-- 36C6A1367D6F2126534162C682704BBB30DDCBC6 -->
<g id="node8" class="node">
<title>36C6A1367D6F2126534162C682704BBB30DDCBC6</title>
<polygon fill="lightgrey" stroke="black" points="5049.5,-209 4652.5,-209 4652.5,-173 5049.5,-173 5049.5,-209"/>
<text text-anchor="middle" x="4851" y="-187.3" font-family="Times,serif" font-size="14.00">36C6A1367D6F2126534162C682704BBB30DDCBC6</text>
</g>
<!-- 36C6A1367D6F2126534162C682704BBB30DDCBC6_Tzung&#45;Bi Shih (Personal) &lt;penvirus@gmail.com&gt;&#45;&gt;36C6A1367D6F2126534162C682704BBB30DDCBC6 -->
<!-- 3E46049A87496A351921CAEDD89D81132578E73D_Stephen Boyd &lt;bebarino@gmail.com&gt;&#45;&gt;3E46049A87496A351921CAEDD89D81132578E73D_Stephen Boyd &lt;sboyd@kernel.org&gt; -->
<!-- 3E46049A87496A351921CAEDD89D81132578E73D_Stephen Boyd &lt;sboyd@kernel.org&gt;&#45;&gt;3E46049A87496A351921CAEDD89D81132578E73D_Stephen Boyd &lt;swboyd@chromium.org&gt; -->
<!-- 3E46049A87496A351921CAEDD89D81132578E73D -->
<g id="node12" class="node">
<title>3E46049A87496A351921CAEDD89D81132578E73D</title>
<polygon fill="lightgrey" stroke="black" points="5468,-209 5074,-209 5074,-173 5468,-173 5468,-209"/>
<text text-anchor="middle" x="5271" y="-187.3" font-family="Times,serif" font-size="14.00">3E46049A87496A351921CAEDD89D81132578E73D</text>
</g>
<!-- 3E46049A87496A351921CAEDD89D81132578E73D_Stephen Boyd &lt;swboyd@chromium.org&gt;&#45;&gt;3E46049A87496A351921CAEDD89D81132578E73D -->
<!-- 41F7B31A929D0CDB5FF03D017B87A618123D80DB_Sergey Senozhatsky &lt;sergey.senozhatsky@gmail.com&gt; -->
<g id="node13" class="node">
<title>41F7B31A929D0CDB5FF03D017B87A618123D80DB_Sergey Senozhatsky &lt;sergey.senozhatsky@gmail.com&gt;</title>
<polygon fill="lightgreen" stroke="black" points="674,-374 258,-374 258,-336 674,-336 674,-374"/>
<text text-anchor="middle" x="466" y="-358.8" font-family="Times,serif" font-size="14.00">Sergey Senozhatsky &lt;sergey.senozhatsky@gmail.com&gt;</text>
<text text-anchor="middle" x="466" y="-343.8" font-family="Times,serif" font-size="14.00">(100%)</text>
</g>
<!-- 41F7B31A929D0CDB5FF03D017B87A618123D80DB -->
<g id="node14" class="node">
<title>41F7B31A929D0CDB5FF03D017B87A618123D80DB</title>
<polygon fill="lightgrey" stroke="black" points="665.5,-284 266.5,-284 266.5,-248 665.5,-248 665.5,-284"/>
<text text-anchor="middle" x="466" y="-262.3" font-family="Times,serif" font-size="14.00">41F7B31A929D0CDB5FF03D017B87A618123D80DB</text>
</g>
<!-- 41F7B31A929D0CDB5FF03D017B87A618123D80DB_Sergey Senozhatsky &lt;sergey.senozhatsky@gmail.com&gt;&#45;&gt;41F7B31A929D0CDB5FF03D017B87A618123D80DB -->
<!-- 647F28654894E3BD457199BE38DBBDC86092693E_Greg Kroah&#45;Hartman &lt;gregkh@kernel.org&gt; -->
<g id="node15" class="node">
<title>647F28654894E3BD457199BE38DBBDC86092693E_Greg Kroah&#45;Hartman &lt;gregkh@kernel.org&gt;</title>
<polygon fill="lightgreen" stroke="black" points="2983,-623 2649,-623 2649,-587 2983,-587 2983,-623"/>
<text text-anchor="middle" x="2816" y="-601.3" font-family="Times,serif" font-size="14.00">Greg Kroah&#45;Hartman &lt;gregkh@kernel.org&gt;</text>
</g>
<!-- 647F28654894E3BD457199BE38DBBDC86092693E_Greg Kroah&#45;Hartman &lt;gregkh@linuxfoundation.org&gt; -->
<g id="node16" class="node">
<title>647F28654894E3BD457199BE38DBBDC86092693E_Greg Kroah&#45;Hartman &lt;gregkh@linuxfoundation.org&gt;</title>
<polygon fill="lightgreen" stroke="black" points="3016.5,-550 2615.5,-550 2615.5,-514 3016.5,-514 3016.5,-550"/>
<text text-anchor="middle" x="2816" y="-528.3" font-family="Times,serif" font-size="14.00">Greg Kroah&#45;Hartman &lt;gregkh@linuxfoundation.org&gt;</text>
</g>
<!-- 647F28654894E3BD457199BE38DBBDC86092693E_Greg Kroah&#45;Hartman &lt;gregkh@kernel.org&gt;&#45;&gt;647F28654894E3BD457199BE38DBBDC86092693E_Greg Kroah&#45;Hartman &lt;gregkh@linuxfoundation.org&gt; -->
<!-- 647F28654894E3BD457199BE38DBBDC86092693E -->
<g id="node17" class="node">
<title>647F28654894E3BD457199BE38DBBDC86092693E</title>
<polygon fill="#9f79ee" stroke="black" points="3014,-462 2618,-462 2618,-426 3014,-426 3014,-462"/>
<text text-anchor="middle" x="2816" y="-440.3" font-family="Times,serif" font-size="14.00">647F28654894E3BD457199BE38DBBDC86092693E</text>
</g>
<!-- 647F28654894E3BD457199BE38DBBDC86092693E_Greg Kroah&#45;Hartman &lt;gregkh@linuxfoundation.org&gt;&#45;&gt;647F28654894E3BD457199BE38DBBDC86092693E -->
<!-- 647F28654894E3BD457199BE38DBBDC86092693E&#45;&gt;41F7B31A929D0CDB5FF03D017B87A618123D80DB_Sergey Senozhatsky &lt;sergey.senozhatsky@gmail.com&gt; -->
<g id="edge46" class="edge">
<title>647F28654894E3BD457199BE38DBBDC86092693E&#45;&gt;41F7B31A929D0CDB5FF03D017B87A618123D80DB_Sergey Senozhatsky &lt;sergey.senozhatsky@gmail.com&gt;</title>
<path fill="none" stroke="black" d="M2617.67,-442.44C2287.51,-440.74 1604.38,-433.96 1027,-407 875.2,-399.91 837.27,-396.48 686,-382 666.54,-380.14 646.13,-377.99 625.92,-375.74"/>
<polygon fill="black" stroke="black" points="626.55,-372.29 616.22,-374.65 625.77,-379.25 626.55,-372.29"/>
<text text-anchor="middle" x="1110.5" y="-395.8" font-family="Times,serif" font-size="14.00">certified on 2020&#45;05&#45;05</text>
<polyline fill="none" stroke="black" points="1194,-392 1027,-392 1027,-407"/>
</g>
<!-- 7F3D64824AC0B6B8009E50504BC0896FB5693595_Harald Hoyer &lt;harald@hoyer.xyz&gt; -->
<g id="node20" class="node">
<title>7F3D64824AC0B6B8009E50504BC0896FB5693595_Harald Hoyer &lt;harald@hoyer.xyz&gt;</title>
<polygon fill="lightgreen" stroke="black" points="1087.5,-374 818.5,-374 818.5,-336 1087.5,-336 1087.5,-374"/>
<text text-anchor="middle" x="953" y="-358.8" font-family="Times,serif" font-size="14.00">Harald Hoyer &lt;harald@hoyer.xyz&gt;</text>
<text text-anchor="middle" x="953" y="-343.8" font-family="Times,serif" font-size="14.00">(100%)</text>
</g>
<!-- 647F28654894E3BD457199BE38DBBDC86092693E&#45;&gt;7F3D64824AC0B6B8009E50504BC0896FB5693595_Harald Hoyer &lt;harald@hoyer.xyz&gt; -->
<g id="edge44" class="edge">
<title>647F28654894E3BD457199BE38DBBDC86092693E&#45;&gt;7F3D64824AC0B6B8009E50504BC0896FB5693595_Harald Hoyer &lt;harald@hoyer.xyz&gt;</title>
<path fill="none" stroke="black" d="M2617.75,-440C2357.63,-435.52 1886.94,-425.55 1485,-407 1314.6,-399.14 1271.38,-402.25 1102,-382 1088.63,-380.4 1074.63,-378.4 1060.8,-376.22"/>
<polygon fill="black" stroke="black" points="1061.68,-372.82 1051.25,-374.68 1060.57,-379.73 1061.68,-372.82"/>
<text text-anchor="middle" x="1568.5" y="-395.8" font-family="Times,serif" font-size="14.00">certified on 2020&#45;03&#45;27</text>
<polyline fill="none" stroke="black" points="1652,-392 1485,-392 1485,-407"/>
</g>
<!-- 7F3D64824AC0B6B8009E50504BC0896FB5693595_Harald Hoyer &lt;harald@redhat.com&gt; -->
<g id="node21" class="node">
<title>7F3D64824AC0B6B8009E50504BC0896FB5693595_Harald Hoyer &lt;harald@redhat.com&gt;</title>
<polygon fill="lightgreen" stroke="black" points="1089.5,-285 806.5,-285 806.5,-247 1089.5,-247 1089.5,-285"/>
<text text-anchor="middle" x="948" y="-269.8" font-family="Times,serif" font-size="14.00">Harald Hoyer &lt;harald@redhat.com&gt;</text>
<text text-anchor="middle" x="948" y="-254.8" font-family="Times,serif" font-size="14.00">(100%)</text>
</g>
<!-- 647F28654894E3BD457199BE38DBBDC86092693E&#45;&gt;7F3D64824AC0B6B8009E50504BC0896FB5693595_Harald Hoyer &lt;harald@redhat.com&gt; -->
<g id="edge45" class="edge">
<title>647F28654894E3BD457199BE38DBBDC86092693E&#45;&gt;7F3D64824AC0B6B8009E50504BC0896FB5693595_Harald Hoyer &lt;harald@redhat.com&gt;</title>
<path fill="none" stroke="black" d="M2815.32,-425.62C2813.78,-396.7 2808.89,-340.72 2794,-329 2720.1,-270.86 1195.79,-291.69 1102,-285 1101.75,-284.98 1101.5,-284.96 1101.24,-284.95"/>
<polygon fill="black" stroke="black" points="1101.52,-281.46 1091.28,-284.18 1100.98,-288.44 1101.52,-281.46"/>
<text text-anchor="middle" x="2894.5" y="-351.3" font-family="Times,serif" font-size="14.00">certified on 2020&#45;03&#45;27</text>
<polyline fill="none" stroke="black" points="2978,-347.5 2811,-347.5 2809.51,-369.97"/>
</g>
<!-- 92645A857052BAB30883562F4705B4CB4706DB31_Gustavo A. R. Silva &lt;gustavo@embeddedor.com&gt; -->
<g id="node26" class="node">
<title>92645A857052BAB30883562F4705B4CB4706DB31_Gustavo A. R. Silva &lt;gustavo@embeddedor.com&gt;</title>
<polygon fill="lightgreen" stroke="black" points="1500,-374 1126,-374 1126,-336 1500,-336 1500,-374"/>
<text text-anchor="middle" x="1313" y="-358.8" font-family="Times,serif" font-size="14.00">Gustavo A. R. Silva &lt;gustavo@embeddedor.com&gt;</text>
<text text-anchor="middle" x="1313" y="-343.8" font-family="Times,serif" font-size="14.00">(100%)</text>
</g>
<!-- 647F28654894E3BD457199BE38DBBDC86092693E&#45;&gt;92645A857052BAB30883562F4705B4CB4706DB31_Gustavo A. R. Silva &lt;gustavo@embeddedor.com&gt; -->
<g id="edge42" class="edge">
<title>647F28654894E3BD457199BE38DBBDC86092693E&#45;&gt;92645A857052BAB30883562F4705B4CB4706DB31_Gustavo A. R. Silva &lt;gustavo@embeddedor.com&gt;</title>
<path fill="none" stroke="black" d="M2617.58,-440.17C2362.22,-435.03 1905.09,-420.82 1516,-382 1497.98,-380.2 1479.09,-378.09 1460.39,-375.86"/>
<polygon fill="black" stroke="black" points="1460.95,-372.4 1450.6,-374.68 1460.11,-379.35 1460.95,-372.4"/>
<text text-anchor="middle" x="1883.5" y="-395.8" font-family="Times,serif" font-size="14.00">certified on 2019&#45;01&#45;17</text>
<polyline fill="none" stroke="black" points="1967,-392 1800,-392 1882.38,-411.03"/>
</g>
<!-- A1EA0673EAD8B74F17D2B9E17C31E21A98D21E0D_Hans de Goede &lt;hdegoede@redhat.com&gt; -->
<g id="node28" class="node">
<title>A1EA0673EAD8B74F17D2B9E17C31E21A98D21E0D_Hans de Goede &lt;hdegoede@redhat.com&gt;</title>
<polygon fill="lightgreen" stroke="black" points="1908.5,-374 1591.5,-374 1591.5,-336 1908.5,-336 1908.5,-374"/>
<text text-anchor="middle" x="1750" y="-358.8" font-family="Times,serif" font-size="14.00">Hans de Goede &lt;hdegoede@redhat.com&gt;</text>
<text text-anchor="middle" x="1750" y="-343.8" font-family="Times,serif" font-size="14.00">(100%)</text>
</g>
<!-- 647F28654894E3BD457199BE38DBBDC86092693E&#45;&gt;A1EA0673EAD8B74F17D2B9E17C31E21A98D21E0D_Hans de Goede &lt;hdegoede@redhat.com&gt; -->
<g id="edge43" class="edge">
<title>647F28654894E3BD457199BE38DBBDC86092693E&#45;&gt;A1EA0673EAD8B74F17D2B9E17C31E21A98D21E0D_Hans de Goede &lt;hdegoede@redhat.com&gt;</title>
<path fill="none" stroke="black" d="M2617.7,-434.04C2440.26,-424.87 2173.24,-408.19 1942,-382 1925.75,-380.16 1908.76,-378.08 1891.88,-375.92"/>
<polygon fill="black" stroke="black" points="1892.68,-372.5 1882.31,-374.69 1891.78,-379.44 1892.68,-372.5"/>
<text text-anchor="middle" x="2264.5" y="-395.8" font-family="Times,serif" font-size="14.00">certified on 2020&#45;09&#45;08</text>
<polyline fill="none" stroke="black" points="2348,-392 2181,-392 2263.23,-411.67"/>
</g>
<!-- B3CF9C1533BE75299CB01D362DFBF4523E542FD9_Will Deacon &lt;will@arm64.dev&gt; -->
<g id="node32" class="node">
<title>B3CF9C1533BE75299CB01D362DFBF4523E542FD9_Will Deacon &lt;will@arm64.dev&gt;</title>
<polygon fill="lightgreen" stroke="black" points="2354,-374 2108,-374 2108,-336 2354,-336 2354,-374"/>
<text text-anchor="middle" x="2231" y="-358.8" font-family="Times,serif" font-size="14.00">Will Deacon &lt;will@arm64.dev&gt;</text>
<text text-anchor="middle" x="2231" y="-343.8" font-family="Times,serif" font-size="14.00">(100%)</text>
</g>
<!-- 647F28654894E3BD457199BE38DBBDC86092693E&#45;&gt;B3CF9C1533BE75299CB01D362DFBF4523E542FD9_Will Deacon &lt;will@arm64.dev&gt; -->
<g id="edge53" class="edge">
<title>647F28654894E3BD457199BE38DBBDC86092693E&#45;&gt;B3CF9C1533BE75299CB01D362DFBF4523E542FD9_Will Deacon &lt;will@arm64.dev&gt;</title>
<path fill="none" stroke="black" d="M2617.9,-426.5C2568.17,-421.29 2515.01,-414.81 2466,-407 2416.21,-399.06 2361.1,-387.26 2316.77,-377.01"/>
<polygon fill="black" stroke="black" points="2317.75,-373.65 2307.21,-374.79 2316.16,-380.47 2317.75,-373.65"/>
<text text-anchor="middle" x="2549.5" y="-395.8" font-family="Times,serif" font-size="14.00">certified on 2019&#45;05&#45;21</text>
<polyline fill="none" stroke="black" points="2633,-392 2466,-392 2547.09,-418.41"/>
</g>
<!-- B3CF9C1533BE75299CB01D362DFBF4523E542FD9_Will Deacon &lt;will@kernel.org&gt; -->
<g id="node33" class="node">
<title>B3CF9C1533BE75299CB01D362DFBF4523E542FD9_Will Deacon &lt;will@kernel.org&gt;</title>
<polygon fill="lightgreen" stroke="black" points="2352.5,-285 2109.5,-285 2109.5,-247 2352.5,-247 2352.5,-285"/>
<text text-anchor="middle" x="2231" y="-269.8" font-family="Times,serif" font-size="14.00">Will Deacon &lt;will@kernel.org&gt;</text>
<text text-anchor="middle" x="2231" y="-254.8" font-family="Times,serif" font-size="14.00">(100%)</text>
</g>
<!-- 647F28654894E3BD457199BE38DBBDC86092693E&#45;&gt;B3CF9C1533BE75299CB01D362DFBF4523E542FD9_Will Deacon &lt;will@kernel.org&gt; -->
<g id="edge54" class="edge">
<title>647F28654894E3BD457199BE38DBBDC86092693E&#45;&gt;B3CF9C1533BE75299CB01D362DFBF4523E542FD9_Will Deacon &lt;will@kernel.org&gt;</title>
<path fill="none" stroke="black" d="M2926.29,-425.54C2950.05,-416.47 2972.38,-402.74 2987,-382 3000.57,-362.75 3002.31,-346.9 2987,-329 2948.77,-284.32 2722.8,-315.78 2366,-285 2365.32,-284.94 2364.64,-284.88 2363.95,-284.82"/>
<polygon fill="black" stroke="black" points="2364.53,-281.36 2354.24,-283.9 2363.87,-288.33 2364.53,-281.36"/>
<text text-anchor="middle" x="3080.5" y="-351.3" font-family="Times,serif" font-size="14.00">certified on 2019&#45;05&#45;21</text>
<polyline fill="none" stroke="black" points="3164,-347.5 2997,-347.5 2997.84,-354.59"/>
</g>
<!-- B6ACBF1CE9558A22EC4D649FD052EC8D6F0CCF55_Julia Lawall &lt;Julia.Lawall@inria.fr&gt; -->
<g id="node35" class="node">
<title>B6ACBF1CE9558A22EC4D649FD052EC8D6F0CCF55_Julia Lawall &lt;Julia.Lawall@inria.fr&gt;</title>
<polygon fill="lightgreen" stroke="black" points="2780,-374 2506,-374 2506,-336 2780,-336 2780,-374"/>
<text text-anchor="middle" x="2643" y="-358.8" font-family="Times,serif" font-size="14.00">Julia Lawall &lt;Julia.Lawall@inria.fr&gt;</text>
<text text-anchor="middle" x="2643" y="-343.8" font-family="Times,serif" font-size="14.00">(100%)</text>
</g>
<!-- 647F28654894E3BD457199BE38DBBDC86092693E&#45;&gt;B6ACBF1CE9558A22EC4D649FD052EC8D6F0CCF55_Julia Lawall &lt;Julia.Lawall@inria.fr&gt; -->
<g id="edge47" class="edge">
<title>647F28654894E3BD457199BE38DBBDC86092693E&#45;&gt;B6ACBF1CE9558A22EC4D649FD052EC8D6F0CCF55_Julia Lawall &lt;Julia.Lawall@inria.fr&gt;</title>
<path fill="none" stroke="black" d="M2682.2,-425.53C2664.53,-420.71 2650.33,-414.63 2644,-407 2639.12,-401.11 2637.42,-393.4 2637.31,-385.76"/>
<polygon fill="black" stroke="black" points="2640.78,-386.2 2638.04,-375.97 2633.8,-385.68 2640.78,-386.2"/>
<text text-anchor="middle" x="2727.5" y="-395.8" font-family="Times,serif" font-size="14.00">certified on 2019&#45;10&#45;11</text>
<polyline fill="none" stroke="black" points="2811,-392 2644,-392 2682.19,-425.53"/>
</g>
<!-- B6ACBF1CE9558A22EC4D649FD052EC8D6F0CCF55_Julia Lawall &lt;Julia.Lawall@lip6.fr&gt; -->
<g id="node36" class="node">
<title>B6ACBF1CE9558A22EC4D649FD052EC8D6F0CCF55_Julia Lawall &lt;Julia.Lawall@lip6.fr&gt;</title>
<polygon fill="lightgreen" stroke="black" points="2777,-285 2509,-285 2509,-247 2777,-247 2777,-285"/>
<text text-anchor="middle" x="2643" y="-269.8" font-family="Times,serif" font-size="14.00">Julia Lawall &lt;Julia.Lawall@lip6.fr&gt;</text>
<text text-anchor="middle" x="2643" y="-254.8" font-family="Times,serif" font-size="14.00">(100%)</text>
</g>
<!-- 647F28654894E3BD457199BE38DBBDC86092693E&#45;&gt;B6ACBF1CE9558A22EC4D649FD052EC8D6F0CCF55_Julia Lawall &lt;Julia.Lawall@lip6.fr&gt; -->
<g id="edge48" class="edge">
<title>647F28654894E3BD457199BE38DBBDC86092693E&#45;&gt;B6ACBF1CE9558A22EC4D649FD052EC8D6F0CCF55_Julia Lawall &lt;Julia.Lawall@lip6.fr&gt;</title>
<path fill="none" stroke="black" d="M3014.34,-437.29C3288.39,-428.41 3752.27,-409.42 3778,-382 3794.12,-364.82 3794.2,-346.1 3778,-329 3761.21,-311.27 3091.32,-283.87 2788.72,-272.37"/>
<polygon fill="black" stroke="black" points="2788.87,-268.88 2778.74,-271.99 2788.61,-275.87 2788.87,-268.88"/>
<text text-anchor="middle" x="3873.5" y="-351.3" font-family="Times,serif" font-size="14.00">certified on 2019&#45;10&#45;11</text>
<polyline fill="none" stroke="black" points="3957,-347.5 3790,-347.5 3790.12,-355.26"/>
</g>
<!-- D42657F65BEB9D45A004FCFAA6CD9F096F642CB3_Alexandre Belloni (Free Electrons) &lt;alexandre.belloni@free&#45;electrons.com&gt; -->
<g id="node38" class="node">
<title>D42657F65BEB9D45A004FCFAA6CD9F096F642CB3_Alexandre Belloni (Free Electrons) &lt;alexandre.belloni@free&#45;electrons.com&gt;</title>
<polygon fill="lightgreen" stroke="black" points="3766,-374 3204,-374 3204,-336 3766,-336 3766,-374"/>
<text text-anchor="middle" x="3485" y="-358.8" font-family="Times,serif" font-size="14.00">Alexandre Belloni (Free Electrons) &lt;alexandre.belloni@free&#45;electrons.com&gt;</text>
<text text-anchor="middle" x="3485" y="-343.8" font-family="Times,serif" font-size="14.00">(100%)</text>
</g>
<!-- 647F28654894E3BD457199BE38DBBDC86092693E&#45;&gt;D42657F65BEB9D45A004FCFAA6CD9F096F642CB3_Alexandre Belloni (Free Electrons) &lt;alexandre.belloni@free&#45;electrons.com&gt; -->
<g id="edge31" class="edge">
<title>647F28654894E3BD457199BE38DBBDC86092693E&#45;&gt;D42657F65BEB9D45A004FCFAA6CD9F096F642CB3_Alexandre Belloni (Free Electrons) &lt;alexandre.belloni@free&#45;electrons.com&gt;</title>
<path fill="none" stroke="black" d="M2950.18,-425.55C3060.37,-411.22 3216.47,-390.92 3331.6,-375.95"/>
<polygon fill="black" stroke="black" points="3332,-379.43 3341.46,-374.67 3331.09,-372.49 3332,-379.43"/>
<text text-anchor="middle" x="3273.5" y="-395.8" font-family="Times,serif" font-size="14.00">certified on 2019&#45;09&#45;23</text>
<polyline fill="none" stroke="black" points="3357,-392 3190,-392 3271.27,-383.79"/>
</g>
<!-- D42657F65BEB9D45A004FCFAA6CD9F096F642CB3_Alexandre Belloni &lt;abelloni@kernel.org&gt; -->
<g id="node39" class="node">
<title>D42657F65BEB9D45A004FCFAA6CD9F096F642CB3_Alexandre Belloni &lt;abelloni@kernel.org&gt;</title>
<polygon fill="lightgreen" stroke="black" points="3727.5,-285 3412.5,-285 3412.5,-247 3727.5,-247 3727.5,-285"/>
<text text-anchor="middle" x="3570" y="-269.8" font-family="Times,serif" font-size="14.00">Alexandre Belloni &lt;abelloni@kernel.org&gt;</text>
<text text-anchor="middle" x="3570" y="-254.8" font-family="Times,serif" font-size="14.00">(100%)</text>
</g>
<!-- 647F28654894E3BD457199BE38DBBDC86092693E&#45;&gt;D42657F65BEB9D45A004FCFAA6CD9F096F642CB3_Alexandre Belloni &lt;abelloni@kernel.org&gt; -->
<g id="edge32" class="edge">
<title>647F28654894E3BD457199BE38DBBDC86092693E&#45;&gt;D42657F65BEB9D45A004FCFAA6CD9F096F642CB3_Alexandre Belloni &lt;abelloni@kernel.org&gt;</title>
<path fill="none" stroke="black" d="M3014.19,-439.59C3333.55,-433.08 3929.68,-416.39 3961,-382 4034.8,-300.97 3876.15,-275.89 3739.32,-268.73"/>
<polygon fill="black" stroke="black" points="3739.51,-265.23 3729.35,-268.24 3739.17,-272.22 3739.51,-265.23"/>
<text text-anchor="middle" x="4062.5" y="-351.3" font-family="Times,serif" font-size="14.00">certified on 2019&#45;09&#45;23</text>
<polyline fill="none" stroke="black" points="4146,-347.5 3979,-347.5 3979.62,-347.22"/>
</g>
<!-- D42657F65BEB9D45A004FCFAA6CD9F096F642CB3_Alexandre Belloni &lt;alexandre.belloni@bootlin.com&gt; -->
<g id="node40" class="node">
<title>D42657F65BEB9D45A004FCFAA6CD9F096F642CB3_Alexandre Belloni &lt;alexandre.belloni@bootlin.com&gt;</title>
<polygon fill="lightgreen" stroke="black" points="3766,-210 3374,-210 3374,-172 3766,-172 3766,-210"/>
<text text-anchor="middle" x="3570" y="-194.8" font-family="Times,serif" font-size="14.00">Alexandre Belloni &lt;alexandre.belloni@bootlin.com&gt;</text>
<text text-anchor="middle" x="3570" y="-179.8" font-family="Times,serif" font-size="14.00">(100%)</text>
</g>
<!-- 647F28654894E3BD457199BE38DBBDC86092693E&#45;&gt;D42657F65BEB9D45A004FCFAA6CD9F096F642CB3_Alexandre Belloni &lt;alexandre.belloni@bootlin.com&gt; -->
<g id="edge33" class="edge">
<title>647F28654894E3BD457199BE38DBBDC86092693E&#45;&gt;D42657F65BEB9D45A004FCFAA6CD9F096F642CB3_Alexandre Belloni &lt;alexandre.belloni@bootlin.com&gt;</title>
<path fill="none" stroke="black" d="M3014.23,-441.22C3376.6,-436.96 4112.43,-423.26 4150,-382 4165.86,-364.58 4165.81,-346.46 4150,-329 4133.36,-310.63 4063.38,-322.45 4039,-318 3963.15,-304.15 3756.26,-245.77 3644.31,-213.56"/>
<polygon fill="black" stroke="black" points="3645.49,-210.26 3634.91,-210.85 3643.55,-216.98 3645.49,-210.26"/>
<text text-anchor="middle" x="4122.5" y="-306.8" font-family="Times,serif" font-size="14.00">certified on 2019&#45;09&#45;23</text>
<polyline fill="none" stroke="black" points="4206,-303 4039,-303 4122.03,-319.23"/>
</g>
<!-- D42657F65BEB9D45A004FCFAA6CD9F096F642CB3_Alexandre Belloni &lt;alexandre.belloni@piout.net&gt; -->
<g id="node41" class="node">
<title>D42657F65BEB9D45A004FCFAA6CD9F096F642CB3_Alexandre Belloni &lt;alexandre.belloni@piout.net&gt;</title>
<polygon fill="lightgreen" stroke="black" points="3756.5,-135 3383.5,-135 3383.5,-97 3756.5,-97 3756.5,-135"/>
<text text-anchor="middle" x="3570" y="-119.8" font-family="Times,serif" font-size="14.00">Alexandre Belloni &lt;alexandre.belloni@piout.net&gt;</text>
<text text-anchor="middle" x="3570" y="-104.8" font-family="Times,serif" font-size="14.00">(100%)</text>
</g>
<!-- 647F28654894E3BD457199BE38DBBDC86092693E&#45;&gt;D42657F65BEB9D45A004FCFAA6CD9F096F642CB3_Alexandre Belloni &lt;alexandre.belloni@piout.net&gt; -->
<g id="edge34" class="edge">
<title>647F28654894E3BD457199BE38DBBDC86092693E&#45;&gt;D42657F65BEB9D45A004FCFAA6CD9F096F642CB3_Alexandre Belloni &lt;alexandre.belloni@piout.net&gt;</title>
<path fill="none" stroke="black" d="M3014.4,-443.7C3316.75,-443.69 3878.64,-439.12 4077,-407 4139.9,-396.81 4211,-419.72 4211,-356 4211,-356 4211,-356 4211,-190 4211,-144.83 3956.43,-127.6 3768.15,-121.03"/>
<polygon fill="black" stroke="black" points="3768.32,-117.54 3758.21,-120.69 3768.08,-124.53 3768.32,-117.54"/>
<text text-anchor="middle" x="4294.5" y="-262.3" font-family="Times,serif" font-size="14.00">certified on 2019&#45;09&#45;23</text>
<polyline fill="none" stroke="black" points="4378,-258.5 4211,-258.5 4211,-190"/>
</g>
<!-- 7DB9B58F4A107ACC525AC3B57EF4F96F2BE9962A -->
<g id="node19" class="node">
<title>7DB9B58F4A107ACC525AC3B57EF4F96F2BE9962A</title>
<polygon fill="lightgrey" stroke="black" points="6083,-373 5685,-373 5685,-337 6083,-337 6083,-373"/>
<text text-anchor="middle" x="5884" y="-351.3" font-family="Times,serif" font-size="14.00">7DB9B58F4A107ACC525AC3B57EF4F96F2BE9962A</text>
</g>
<!-- 7DB9B58F4A107ACC525AC3B57EF4F96F2BE9962A_Dmitry Torokhov &lt;dtor@kernel.org&gt;&#45;&gt;7DB9B58F4A107ACC525AC3B57EF4F96F2BE9962A -->
<!-- 7F3D64824AC0B6B8009E50504BC0896FB5693595_Harald Hoyer &lt;harald@hoyer.xyz&gt;&#45;&gt;7F3D64824AC0B6B8009E50504BC0896FB5693595_Harald Hoyer &lt;harald@redhat.com&gt; -->
<!-- 7F3D64824AC0B6B8009E50504BC0896FB5693595 -->
<g id="node22" class="node">
<title>7F3D64824AC0B6B8009E50504BC0896FB5693595</title>
<polygon fill="lightgrey" stroke="black" points="1090,-209 698,-209 698,-173 1090,-173 1090,-209"/>
<text text-anchor="middle" x="894" y="-187.3" font-family="Times,serif" font-size="14.00">7F3D64824AC0B6B8009E50504BC0896FB5693595</text>
</g>
<!-- 7F3D64824AC0B6B8009E50504BC0896FB5693595_Harald Hoyer &lt;harald@redhat.com&gt;&#45;&gt;7F3D64824AC0B6B8009E50504BC0896FB5693595 -->
<!-- 82F5AC96733EA94CBEB20560E67D96630E933C10_Micah Morton &lt;mortonm@chromium.org&gt;&#45;&gt;82F5AC96733EA94CBEB20560E67D96630E933C10_Micah Morton &lt;mortonm@google.com&gt; -->
<!-- 82F5AC96733EA94CBEB20560E67D96630E933C10 -->
<g id="node25" class="node">
<title>82F5AC96733EA94CBEB20560E67D96630E933C10</title>
<polygon fill="lightgrey" stroke="black" points="6502.5,-284 6107.5,-284 6107.5,-248 6502.5,-248 6502.5,-284"/>
<text text-anchor="middle" x="6305" y="-262.3" font-family="Times,serif" font-size="14.00">82F5AC96733EA94CBEB20560E67D96630E933C10</text>
</g>
<!-- 82F5AC96733EA94CBEB20560E67D96630E933C10_Micah Morton &lt;mortonm@google.com&gt;&#45;&gt;82F5AC96733EA94CBEB20560E67D96630E933C10 -->
<!-- 92645A857052BAB30883562F4705B4CB4706DB31 -->
<g id="node27" class="node">
<title>92645A857052BAB30883562F4705B4CB4706DB31</title>
<polygon fill="lightgrey" stroke="black" points="1504,-284 1114,-284 1114,-248 1504,-248 1504,-284"/>
<text text-anchor="middle" x="1309" y="-262.3" font-family="Times,serif" font-size="14.00">92645A857052BAB30883562F4705B4CB4706DB31</text>
</g>
<!-- 92645A857052BAB30883562F4705B4CB4706DB31_Gustavo A. R. Silva &lt;gustavo@embeddedor.com&gt;&#45;&gt;92645A857052BAB30883562F4705B4CB4706DB31 -->
<!-- A1EA0673EAD8B74F17D2B9E17C31E21A98D21E0D -->
<g id="node29" class="node">
<title>A1EA0673EAD8B74F17D2B9E17C31E21A98D21E0D</title>
<polygon fill="lightgrey" stroke="black" points="1929.5,-284 1528.5,-284 1528.5,-248 1929.5,-248 1929.5,-284"/>
<text text-anchor="middle" x="1729" y="-262.3" font-family="Times,serif" font-size="14.00">A1EA0673EAD8B74F17D2B9E17C31E21A98D21E0D</text>
</g>
<!-- A1EA0673EAD8B74F17D2B9E17C31E21A98D21E0D_Hans de Goede &lt;hdegoede@redhat.com&gt;&#45;&gt;A1EA0673EAD8B74F17D2B9E17C31E21A98D21E0D -->
<!-- ABAF11C65A2970B130ABE3C479BE3E4300411886_Linus Torvalds &lt;torvalds@kernel.org&gt; -->
<g id="node30" class="node">
<title>ABAF11C65A2970B130ABE3C479BE3E4300411886_Linus Torvalds &lt;torvalds@kernel.org&gt;</title>
<polygon fill="lightgreen" stroke="black" points="1573,-623 1277,-623 1277,-587 1573,-587 1573,-623"/>
<text text-anchor="middle" x="1425" y="-601.3" font-family="Times,serif" font-size="14.00">Linus Torvalds &lt;torvalds@kernel.org&gt;</text>
</g>
<!-- ABAF11C65A2970B130ABE3C479BE3E4300411886 -->
<g id="node31" class="node">
<title>ABAF11C65A2970B130ABE3C479BE3E4300411886</title>
<polygon fill="#9f79ee" stroke="black" points="1622,-550 1228,-550 1228,-514 1622,-514 1622,-550"/>
<text text-anchor="middle" x="1425" y="-528.3" font-family="Times,serif" font-size="14.00">ABAF11C65A2970B130ABE3C479BE3E4300411886</text>
</g>
<!-- ABAF11C65A2970B130ABE3C479BE3E4300411886_Linus Torvalds &lt;torvalds@kernel.org&gt;&#45;&gt;ABAF11C65A2970B130ABE3C479BE3E4300411886 -->
<!-- B3CF9C1533BE75299CB01D362DFBF4523E542FD9_Will Deacon &lt;will@arm64.dev&gt;&#45;&gt;B3CF9C1533BE75299CB01D362DFBF4523E542FD9_Will Deacon &lt;will@kernel.org&gt; -->
<!-- B3CF9C1533BE75299CB01D362DFBF4523E542FD9 -->
<g id="node34" class="node">
<title>B3CF9C1533BE75299CB01D362DFBF4523E542FD9</title>
<polygon fill="lightgrey" stroke="black" points="2354,-209 1954,-209 1954,-173 2354,-173 2354,-209"/>
<text text-anchor="middle" x="2154" y="-187.3" font-family="Times,serif" font-size="14.00">B3CF9C1533BE75299CB01D362DFBF4523E542FD9</text>
</g>
<!-- B3CF9C1533BE75299CB01D362DFBF4523E542FD9_Will Deacon &lt;will@kernel.org&gt;&#45;&gt;B3CF9C1533BE75299CB01D362DFBF4523E542FD9 -->
<!-- B6ACBF1CE9558A22EC4D649FD052EC8D6F0CCF55_Julia Lawall &lt;Julia.Lawall@inria.fr&gt;&#45;&gt;B6ACBF1CE9558A22EC4D649FD052EC8D6F0CCF55_Julia Lawall &lt;Julia.Lawall@lip6.fr&gt; -->
<!-- B6ACBF1CE9558A22EC4D649FD052EC8D6F0CCF55 -->
<g id="node37" class="node">
<title>B6ACBF1CE9558A22EC4D649FD052EC8D6F0CCF55</title>
<polygon fill="lightgrey" stroke="black" points="2782,-209 2378,-209 2378,-173 2782,-173 2782,-209"/>
<text text-anchor="middle" x="2580" y="-187.3" font-family="Times,serif" font-size="14.00">B6ACBF1CE9558A22EC4D649FD052EC8D6F0CCF55</text>
</g>
<!-- B6ACBF1CE9558A22EC4D649FD052EC8D6F0CCF55_Julia Lawall &lt;Julia.Lawall@lip6.fr&gt;&#45;&gt;B6ACBF1CE9558A22EC4D649FD052EC8D6F0CCF55 -->
<!-- D42657F65BEB9D45A004FCFAA6CD9F096F642CB3_Alexandre Belloni (Free Electrons) &lt;alexandre.belloni@free&#45;electrons.com&gt;&#45;&gt;D42657F65BEB9D45A004FCFAA6CD9F096F642CB3_Alexandre Belloni &lt;abelloni@kernel.org&gt; -->
<!-- D42657F65BEB9D45A004FCFAA6CD9F096F642CB3_Alexandre Belloni &lt;abelloni@kernel.org&gt;&#45;&gt;D42657F65BEB9D45A004FCFAA6CD9F096F642CB3_Alexandre Belloni &lt;alexandre.belloni@bootlin.com&gt; -->
<!-- D42657F65BEB9D45A004FCFAA6CD9F096F642CB3_Alexandre Belloni &lt;alexandre.belloni@bootlin.com&gt;&#45;&gt;D42657F65BEB9D45A004FCFAA6CD9F096F642CB3_Alexandre Belloni &lt;alexandre.belloni@piout.net&gt; -->
<!-- D42657F65BEB9D45A004FCFAA6CD9F096F642CB3 -->
<g id="node42" class="node">
<title>D42657F65BEB9D45A004FCFAA6CD9F096F642CB3</title>
<polygon fill="lightgrey" stroke="black" points="3766,-60 3368,-60 3368,-24 3766,-24 3766,-60"/>
<text text-anchor="middle" x="3567" y="-38.3" font-family="Times,serif" font-size="14.00">D42657F65BEB9D45A004FCFAA6CD9F096F642CB3</text>
</g>
<!-- D42657F65BEB9D45A004FCFAA6CD9F096F642CB3_Alexandre Belloni &lt;alexandre.belloni@piout.net&gt;&#45;&gt;D42657F65BEB9D45A004FCFAA6CD9F096F642CB3 -->
<!-- F51DFD864C136816E7B57F0E858D892E300DB03F_Prashant Malani &lt;p.malani@gmail.com&gt;&#45;&gt;F51DFD864C136816E7B57F0E858D892E300DB03F_Prashant Malani &lt;pmalani@chromium.org&gt; -->
<!-- F51DFD864C136816E7B57F0E858D892E300DB03F_Prashant Malani &lt;pmalani@chromium.org&gt;&#45;&gt;F51DFD864C136816E7B57F0E858D892E300DB03F_Prashant Malani &lt;pmalani@google.com&gt; -->
<!-- F51DFD864C136816E7B57F0E858D892E300DB03F -->
<g id="node46" class="node">
<title>F51DFD864C136816E7B57F0E858D892E300DB03F</title>
<polygon fill="lightgrey" stroke="black" points="6925,-209 6527,-209 6527,-173 6925,-173 6925,-209"/>
<text text-anchor="middle" x="6726" y="-187.3" font-family="Times,serif" font-size="14.00">F51DFD864C136816E7B57F0E858D892E300DB03F</text>
</g>
<!-- F51DFD864C136816E7B57F0E858D892E300DB03F_Prashant Malani &lt;pmalani@google.com&gt;&#45;&gt;F51DFD864C136816E7B57F0E858D892E300DB03F -->
<!-- Trust root -->
<g id="node47" class="node">
<title>Trust root</title>
<polygon fill="#9f79ee" stroke="black" points="167.5,-623 84.5,-623 84.5,-587 173.5,-587 173.5,-617 167.5,-623"/>
<polyline fill="none" stroke="black" points="167.5,-623 167.5,-617"/>
<polyline fill="none" stroke="black" points="173.5,-617 167.5,-617"/>
<text text-anchor="middle" x="129" y="-601.3" font-family="Times,serif" font-size="14.00">Trust root</text>
</g>
<!-- Intermediate introducer -->
<g id="node48" class="node">
<title>Intermediate introducer</title>
<polygon fill="grey" stroke="black" points="217.5,-550 34.5,-550 34.5,-514 223.5,-514 223.5,-544 217.5,-550"/>
<polyline fill="none" stroke="black" points="217.5,-550 217.5,-544"/>
<polyline fill="none" stroke="black" points="223.5,-544 217.5,-544"/>
<text text-anchor="middle" x="129" y="-528.3" font-family="Times,serif" font-size="14.00">Intermediate introducer</text>
</g>
<!-- Trust root&#45;&gt;Intermediate introducer -->
<!-- Authenticated target -->
<g id="node49" class="node">
<title>Authenticated target</title>
<polygon fill="lightgreen" stroke="black" points="206,-462 46,-462 46,-426 212,-426 212,-456 206,-462"/>
<polyline fill="none" stroke="black" points="206,-462 206,-456"/>
<polyline fill="none" stroke="black" points="212,-456 206,-456"/>
<text text-anchor="middle" x="129" y="-440.3" font-family="Times,serif" font-size="14.00">Authenticated target</text>
</g>
<!-- Intermediate introducer&#45;&gt;Authenticated target -->
<!-- Unauthenticated target -->
<g id="node50" class="node">
<title>Unauthenticated target</title>
<polygon fill="#ee6363" stroke="black" points="215.5,-373 36.5,-373 36.5,-337 221.5,-337 221.5,-367 215.5,-373"/>
<polyline fill="none" stroke="black" points="215.5,-373 215.5,-367"/>
<polyline fill="none" stroke="black" points="221.5,-367 215.5,-367"/>
<text text-anchor="middle" x="129" y="-351.3" font-family="Times,serif" font-size="14.00">Unauthenticated target</text>
</g>
<!-- Authenticated target&#45;&gt;Unauthenticated target -->
<!-- target trust amount: 100% -->
<g id="node51" class="node">
<title>target trust amount: 100%</title>
<polygon fill="white" stroke="black" points="227.5,-284 24.5,-284 24.5,-248 233.5,-248 233.5,-278 227.5,-284"/>
<polyline fill="none" stroke="black" points="227.5,-284 227.5,-278"/>
<polyline fill="none" stroke="black" points="233.5,-278 227.5,-278"/>
<text text-anchor="middle" x="129" y="-262.3" font-family="Times,serif" font-size="14.00">target trust amount: 100%</text>
</g>
<!-- Unauthenticated target&#45;&gt;target trust amount: 100% -->
</g>
</svg>
